{

  "ampara" : [{"id":"223", "name":"Addalachchenai"},{"id":"2", "name":"Akkaraipattu"},{"id":"224", "name":"Alayadiwembu"},{"id":"221", "name":"amparai"},{"id":"225", "name":"Damana"},{"id":"230", "name":"Dehiattakandiya"},{"id":"3", "name":"Kalmunai"},{"id":"226", "name":"Karativu"},{"id":"231", "name":"Lahugala"},{"id":"6", "name":"lrakkamam"},{"id":"227", "name":"Mahaoya"},{"id":"255", "name":"Maruthamunai"},{"id":"228", "name":"Navithanveli"},{"id":"7", "name":"Nintavur"},{"id":"253", "name":"Oluvil"},{"id":"254", "name":"Palamunai"},{"id":"5", "name":"Pottuvil"},{"id":"9", "name":"Sainthamaruthu"},{"id":"4", "name":"Samanthurai"},{"id":"8", "name":"Tirukovil"},{"id":"229", "name":"Uhana"}],
  "anuradhapura" : [{"id":"10", "name":"Anuradhapura"},{"id":"11", "name":"Eppawala"},{"id":"15", "name":"Galenbindunuwewa"},{"id":"16", "name":"Galnewa"},{"id":"17", "name":"Habarana"},{"id":"12", "name":"Kekirawa"},{"id":"13", "name":"Medawachchiya"},{"id":"18", "name":"Mihintale"},{"id":"19", "name":"Nochchiyagama"},{"id":"20", "name":"Talawa"},{"id":"14", "name":"Tambuttegama"}],
  "badulla" : [{"id":"21", "name":"Badulla"},{"id":"22", "name":"Bandarawela"},{"id":"26", "name":"Diyatalawa"},{"id":"27", "name":"Ella"},{"id":"25", "name":"Hali Ela"},{"id":"28", "name":"Haputale"},{"id":"24", "name":"Mahiyanganaya"},{"id":"30", "name":"Nochchiyagama"},{"id":"29", "name":"Passara"},{"id":"23", "name":"Welimada"}],
  "batticaloa" : [{"id":"235", "name":"Araiyampathy"},{"id":"31", "name":"Batticaloa"},{"id":"232", "name":"Chenkalady"},{"id":"32", "name":"Eravur"},{"id":"33", "name":"Kaluwanchikudi"},{"id":"34", "name":"Kannankudah"},{"id":"222", "name":"Kattankudy"},{"id":"240", "name":"Kiran"},{"id":"237", "name":"Kokkadichcholai"},{"id":"35", "name":"Oddamavadi"},{"id":"241", "name":"Pasikudah"},{"id":"36", "name":"Pillaiyaradi"},{"id":"234", "name":"Vakarai"},{"id":"233", "name":"Valaichchenai"},{"id":"238", "name":"Vavunathivu"},{"id":"239", "name":"Vellavely"}],
  "gampaha" : [{"id":"42", "name":"Delgoda"},{"id":"43", "name":"Divulapitiya"},{"id":"37", "name":"Gampaha"},{"id":"44", "name":"Ganemulla"},{"id":"45", "name":"Ja-Ela"},{"id":"40", "name":"Kadawatha"},{"id":"46", "name":"Kandana"},{"id":"47", "name":"Katunayake"},{"id":"39", "name":"Kelaniya"},{"id":"41", "name":"kiribathgoda"},{"id":"48", "name":"Minuwangoda"},{"id":"49", "name":"Mirigama"},{"id":"38", "name":"Negombo"},{"id":"50", "name":"Nittambuwa"},{"id":"51", "name":"Ragama"},{"id":"52", "name":"Veyangoda"},{"id":"53", "name":"Wattala"}],
  "hambantota" : [{"id":"56", "name":"Ambalantota"},{"id":"55", "name":"Beliatta"},{"id":"58", "name":"Hambantota"},{"id":"54", "name":"Tangalla"},{"id":"57", "name":"Tissamaharama"}],
  "jaffna" : [{"id":"252", "name":"Chankanai"},{"id":"61", "name":"Chavakachcheri"},{"id":"59", "name":"Jaffna"},{"id":"244", "name":"Karainagar"},{"id":"247", "name":"Karaveddy"},{"id":"242", "name":"Kayts"},{"id":"248", "name":"Kopay"},{"id":"245", "name":"Maruthankerney"},{"id":"60", "name":"Nallur"},{"id":"246", "name":"Point Pedro"},{"id":"251", "name":"Sandilipay"},{"id":"249", "name":"Tellippalai"},{"id":"250", "name":"Uduvil"},{"id":"243", "name":"Velanai"}],
  "kalutara" : [{"id":"68", "name":"Alutgama"},{"id":"66", "name":"Bandaragama"},{"id":"69", "name":"Beruwala"},{"id":"64", "name":"Horana"},{"id":"70", "name":"Ingiriya"},{"id":"63", "name":"Kalutara"},{"id":"67", "name":"Matugama"},{"id":"65", "name":"Panadura"},{"id":"71", "name":"Wadduwa"}],
  "kegalle" : [{"id":"77", "name":"Dehiowita"},{"id":"78", "name":"Deraniyagala"},{"id":"79", "name":"Galigamuwa"},{"id":"72", "name":"Kegalle"},{"id":"80", "name":"Kitulgala"},{"id":"73", "name":"Mawanella"},{"id":"75", "name":"Rambukkana"},{"id":"76", "name":"Ruwanwella"},{"id":"74", "name":"Warakapola"},{"id":"81", "name":"Yatiyantota"}],
  "kilinochchi" : [{"id":"82", "name":"Kilinochchi"}],
  "kurunegala" : [{"id":"88", "name":"Alawwa"},{"id":"89", "name":"Bingiriya"},{"id":"90", "name":"Galgamuwa"},{"id":"91", "name":"Giriulla"},{"id":"92", "name":"Hettipola"},{"id":"93", "name":"Ibbagamuwa"},{"id":"84", "name":"Kuliyapitiya"},{"id":"83", "name":"Kurunegala"},{"id":"94", "name":"Mawathagama"},{"id":"86", "name":"Narammala"},{"id":"95", "name":"Nikaweratiya"},{"id":"85", "name":"Pannala"},{"id":"96", "name":"Polgahawela"},{"id":"87", "name":"Wariyapola"}],
  "mannar" : [{"id":"97", "name":"Mannar"}],
  "matale" : [{"id":"99", "name":"Dambulla"},{"id":"100", "name":"Galewela"},{"id":"98", "name":"Matale"},{"id":"102", "name":"Palapathwela"},{"id":"103", "name":"Rattota"},{"id":"104", "name":"Sigiriya"},{"id":"101", "name":"Ukuwela"},{"id":"105", "name":"Yatawatta"}],
  "matara" : [{"id":"107", "name":"Akuressa"},{"id":"111", "name":"Deniyaya"},{"id":"110", "name":"Dikwella"},{"id":"109", "name":"Hakmana"},{"id":"112", "name":"Kamburugamuwa"},{"id":"113", "name":"Kamburupitiya"},{"id":"114", "name":"Kekanadurra"},{"id":"106", "name":"Matara"},{"id":"108", "name":"Weligama"}],
  "monaragala" : [{"id":"117", "name":"Bibile"},{"id":"119", "name":"Buttala"},{"id":"118", "name":"Kataragama"},{"id":"115", "name":"Monaragala"},{"id":"116", "name":"Wellawaya"}],
  "mullaitivu" : [{"id":"120", "name":"Mullaitivu"},{"id":"121", "name":"Oddusuddan"},{"id":"122", "name":"Pandiyankulam"},{"id":"123", "name":"Puthukkudiyiruppu"},{"id":"124", "name":"Thunukkai"}],
  "nuwara_eliya" : [{"id":"127", "name":"Ginigathena"},{"id":"126", "name":"Hatton"},{"id":"128", "name":"Madulla"},{"id":"125", "name":"Nuwara eliya"}],
  "polonnaruwa" : [{"id":"131", "name":"Hingurakgoda"},{"id":"130", "name":"Kaduruwela"},{"id":"132", "name":"Medirigiriya"},{"id":"129", "name":"Polonnaruwa"}],
  "puttalam" : [{"id":"138", "name":" Marawila"},{"id":"134", "name":"Chilaw"},{"id":"136", "name":"Dankotuwa"},{"id":"137", "name":"Nattandiya"},{"id":"133", "name":"Puttalam"},{"id":"135", "name":"Wennappuwa"}],
  "ratnapura" : [{"id":"141", "name":"Balangoda"},{"id":"143", "name":"Eheliyagoda"},{"id":"140", "name":"Embilipitiya"},{"id":"144", "name":"Kuruwita"},{"id":"142", "name":"Pelmadulla"},{"id":"139", "name":"Ratnapura"}],
  "trincomalee" : [{"id":"147", "name":"Kantalai"},{"id":"148", "name":"Kinniya"},{"id":"146", "name":"Kuchchaveli"},{"id":"149", "name":"Mutur"},{"id":"150", "name":"Sampur"},{"id":"145", "name":"Trincomalee"}],
  "vavuniya" : [{"id":"152", "name":"Cheddikulam"},{"id":"154", "name":"Kinniya"},{"id":"153", "name":"Nedunkeni"},{"id":"151", "name":"Vavuniya"}],
  "colombo" : [{"id":"160", "name":"Angoda"},{"id":"161", "name":"Athurugiriya"},{"id":"162", "name":"Avissawella"},{"id":"163", "name":"Battaramulla"},{"id":"164", "name":"Boralesgamuwa"},{"id":"165", "name":"Colombo 01"},{"id":"171", "name":"Colombo 02"},{"id":"172", "name":"Colombo 03"},{"id":"173", "name":"Colombo 04"},{"id":"174", "name":"Colombo 05"},{"id":"158", "name":"Colombo 06"},{"id":"175", "name":"Colombo 07"},{"id":"176", "name":"Colombo 08"},{"id":"177", "name":"Colombo 09"},{"id":"166", "name":"Colombo 10"},{"id":"167", "name":"Colombo 12"},{"id":"168", "name":"Colombo 13"},{"id":"169", "name":"Colombo 14"},{"id":"170", "name":"Colombo 15"},{"id":"156", "name":"Dehiwala"},{"id":"178", "name":"Hanwella"},{"id":"179", "name":"Homagama"},{"id":"180", "name":"Kaduwela"},{"id":"181", "name":"kesbewa"},{"id":"182", "name":"kohuwala"},{"id":"183", "name":"Kolonnawa"},{"id":"159", "name":"Kottawa"},{"id":"185", "name":"Maharagama"},{"id":"186", "name":"Malabe"},{"id":"187", "name":"Moratuwa"},{"id":"188", "name":"Mount Lavinia"},{"id":"189", "name":"Nawala"},{"id":"155", "name":"Nugegoda"},{"id":"190", "name":"Padukka"},{"id":"191", "name":"Pannipitiya"},{"id":"157", "name":"Piliyandala"},{"id":"192", "name":"Rajagiriya"},{"id":"193", "name":"Ratmalana"},{"id":"184", "name":"Sri Jayawardenepu"},{"id":"194", "name":"Talawatugoda"},{"id":"195", "name":"Wellampitiya"}],
  "kandy" : [{"id":"201", "name":"Akurana"},{"id":"202", "name":"Ampitiya"},{"id":"203", "name":"Digana"},{"id":"204", "name":"Galagedara"},{"id":"199", "name":"Gampola"},{"id":"205", "name":"Gelioya"},{"id":"206", "name":"Kadugannawa"},{"id":"196", "name":"Kandy"},{"id":"197", "name":"Katugastota"},{"id":"200", "name":"Kundasale"},{"id":"207", "name":"Madawala Bazaar"},{"id":"208", "name":"Nawalapitiya"},{"id":"198", "name":"Peradeniya"},{"id":"209", "name":"Pilimatalawa"},{"id":"210", "name":"Wattegama"}],
  "galle" : [{"id":"216", "name":"Ahangama"},{"id":"212", "name":"Ambalangoda"},{"id":"215", "name":"Baddegama"},{"id":"217", "name":"Batapola"},{"id":"218", "name":"Bentota"},{"id":"213", "name":"Elpitiya"},{"id":"211", "name":"Galle"},{"id":"214", "name":"Hikkaduwa"},{"id":"220", "name":"Karapitiya"}]


}